module github.com/get-got/discord-downloader-go

go 1.15

require (
	github.com/AvraamMavridis/randomcolor v0.0.0-20180822172341-208aff70bf2c
	github.com/ChimeraCoder/anaconda v2.0.0+incompatible
	github.com/ChimeraCoder/tokenbucket v0.0.0-20131201223612-c5a927568de7 // indirect
	github.com/HouzuoGuo/tiedot v0.0.0-20200330175510-6fb216206052
	github.com/Jeffail/gabs v1.4.0
	github.com/Necroforger/dgrouter v0.0.0-20200517224846-e66453b957c1
	github.com/PuerkitoBio/goquery v1.6.0
	github.com/azr/backoff v0.0.0-20160115115103-53511d3c7330 // indirect
	github.com/bwmarrin/discordgo v0.22.0
	github.com/dustin/go-jsonpointer v0.0.0-20160814072949-ba0abeacc3dc // indirect
	github.com/dustin/gojson v0.0.0-20160307161227-2e71ec9dd5ad // indirect
	github.com/fatih/color v1.9.0
	github.com/fsnotify/fsnotify v1.4.9
	github.com/garyburd/go-oauth v0.0.0-20180319155456-bca2e7f09a17 // indirect
	github.com/hako/durafmt v0.0.0-20200710122514-c0fb7b4da026
	github.com/hashicorp/go-version v1.2.1
	github.com/kennygrant/sanitize v1.2.4
	github.com/nfnt/resize v0.0.0-20180221191011-83c6a9932646 // indirect
	github.com/rivo/duplo v0.0.0-20180323201418-c4ec823d58cd
	golang.org/x/net v0.0.0-20201016165138-7b1cca2348c0
	golang.org/x/oauth2 v0.0.0-20201109201403-9fd604954f58
	google.golang.org/api v0.35.0
	gopkg.in/ini.v1 v1.62.0
	mvdan.cc/xurls/v2 v2.2.0
)
